조건에 맞는 데이터 추출하기 filter - For Data Analytics
…
이번에는 species 변수의 값이 Droid가 아닌 데이터를 추출하겠습니다. 이때 사용하는 연산자는 ’같지 않다’라는 의미를 가진 !=를 사용할 것입니다. ==와 반대입니다.

starwars |> 
  filter(species != 'Droid')

## # A tibble: 77 x 14
##    name     height  mass hair_color skin_color eye_color birth_year sex   gender
##    <chr>     <int> <dbl> <chr>      <chr>      <chr>          <dbl> <chr> <chr> 
##  1 Luke Sk~    172    77 blond      fair       blue            19   male  mascu~
##  2 Darth V~    202   136 none       white      yellow          41.9 male  mascu~
##  3 Leia Or~    150    49 brown      light      brown           19   fema~ femin~
##  4 Owen La~    178   120 brown, gr~ light      blue            52   male  mascu~
##  5 Beru Wh~    165    75 brown      light      blue            47   fema~ femin~
##  6 Biggs D~    183    84 black      light      brown           24   male  mascu~
##  7 Obi-Wan~    182    77 auburn, w~ fair       blue-gray       57   male  mascu~
##  8 Anakin ~    188    84 blond      fair       blue            41.9 male  mascu~
##  9 Wilhuff~    180    NA auburn, g~ fair       blue            64   male  mascu~
## 10 Chewbac~    228   112 brown      unknown    blue           200   male  mascu~
## # ... with 67 more rows, and 5 more variables: homeworld <chr>, species <chr>,
## #   films <list>, vehicles <list>, starships <list>
…
예시 3 : 목록의 값과 일치하는 데이터 추출하기

eye_color 변수의 값이 blue, yellow, red, brown, blue-gray 등 일때 blue, yellow, red인 데이터를 추출하고자 한다면 (eye_color == 'blue' | eye_color == 'yellow' | eye_color == 'red')와 같은 긴 조건식을 입력해야 합니다. %in% 연산자는 이를 간략하게 해줍니다. 위 조건식은 (eye_color %in% c('blue', 'yellow', 'red'))로 대체가 가능합니다.

아래 예시는 eye_color 변수의 값이 blue, yellow, red인 데이터를 추출하는 것입니다. 35개의 데이터가 추출됩니다.

starwars |> 
  filter(eye_color %in% c('blue', 'yellow', 'red'))

## # A tibble: 35 x 14
##    name     height  mass hair_color skin_color eye_color birth_year sex   gender
##    <chr>     <int> <dbl> <chr>      <chr>      <chr>          <dbl> <chr> <chr> 
##  1 Luke Sk~    172    77 blond      fair       blue            19   male  mascu~
##  2 C-3PO       167    75 <NA>       gold       yellow         112   none  mascu~
##  3 R2-D2        96    32 <NA>       white, bl~ red             33   none  mascu~
##  4 Darth V~    202   136 none       white      yellow          41.9 male  mascu~
##  5 Owen La~    178   120 brown, gr~ light      blue            52   male  mascu~
##  6 Beru Wh~    165    75 brown      light      blue            47   fema~ femin~
##  7 R5-D4        97    32 <NA>       white, red red             NA   none  mascu~
##  8 Anakin ~    188    84 blond      fair       blue            41.9 male  mascu~
##  9 Wilhuff~    180    NA auburn, g~ fair       blue            64   male  mascu~
## 10 Chewbac~    228   112 brown      unknown    blue           200   male  mascu~
## # ... with 25 more rows, and 5 more variables: homeworld <chr>, species <chr>,
## #   films <list>, vehicles <list>, starships <list>
…
